{
  "debug": false,
  "api": {
    "auth": {
      "password": null,
      "username": null
    },
    "cors": {
      "setAllowOriginToAll": true
    },
    "http" : {
      "useHttp" : true,
      "host": "0.0.0.0",
      "port": 14265
    },
    "https" : {
      "useHttps" : false,
      "host": "0.0.0.0",
      "port": 14266,
      "certificatePath" : "cert.pem",
      "privateKeyPath" : "key.pem"
    },
    "limitRemoteAccess": [
      "getNeighbors",
      "addNeighbors",
      "removeNeighbors",
      "makeSnapshot",
      "listAllAccounts"
    ],
    "pow": {
      "maxMinWeightMagnitude": 14,
      "maxTransactions": 10000
    }
  },
  "log": {
    "level": "DEBUG"
  },
  "pidiver": {
    "core": "../pidiver1.3.rbf",
    "device": "/dev/ttyACM0",
    "type": "pidiver"
  }
}


